                                        
                                        
                   22                   
                  2112                  
                 211112                 
                21111112                
               1 11111112               
              121111111112              
             11111111111112             
            2211111111111112            
           2111111111111111121          
          2111111      11111121         
         2111111         1111121        
        2111111          11111 11       
      121111111          11111111       
     1211111                1111111     
    211                          112    
   2                                1   
                                        
                                        
