                                              122221    12222211                               
                                            112233221112223322221                          11 
   1111                                    112223332211122333222111                     11111111
 11111111                                 11122222221111222222211111                    1111111
 11111111111                             111111111111111111111111111111                 111111 
 111111111111                         111111111111111111111111111111111111            11111111  
      111111111                    1111111113311113311111133311111111111111         11111111   
      11111111111                 1111111113333333333333333333333331111111111     11111111     
         1111111111           11111111111111111111111111333333333333111111111   11111111       
            11111111           1111111111111111111111111111111111111111111111111111111         
              11111111         111111111111111111111111111111111111111111111111111111          
                11111111          11111111111111111111111111111111111111111111111111           
                11111111111         1111111111111111111111111111111111111111111111             
                  1111111111       1111111111111111111111111111111111111111111111              
                     1111111111  1111111111111111111111111111111111111111111111                
                       1111111111111111111111111111111111111111111111111111111                 
                         1111111111111111111111111111111111111111111111111111                  
                           11111111111111111111111111111111111111111111111111                  
                             111111111111111111111111111111111111111111111111                  
                             111111111111111111111111111111111111111111111111                  
