             111222222222111            
         112222221    122222211         
      112221                122221      
    11222                      12221    
   1222                          12221  
  2221   122       11    11        2221 
 2221    122    12222221222221      222 
1221     122   1221   222   222     1222
2221     122   1221   222   222      222
222      122   1221   222   222      222
222      122   1221   222   222      222
1222     122                222     1222
 2221     2221             1221     222 
  2221     122222222222222222      2221 
   2221                          12221  
    12221                      11221    
      122211                112221      
         1222211111111111112222         
              2222222222221             
                 1222211                
